nID;nID_Organ;nID_Structure
1;1;1
2;2;1
3;3;1
4;4;1
5;5;1
6;1;2
7;2;2
8;3;2
9;4;2
10;5;2
11;6;1
12;7;1
13;8;1
14;9;1
15;10;1
16;11;1
17;12;1
18;13;1
19;14;1
20;15;1
21;16;1
22;17;1
23;18;1
24;19;1
25;20;1
26;21;1
27;22;1
28;23;1
29;24;1
30;25;1
31;26;1
32;27;1
33;28;1
34;29;1
35;30;1
36;31;1
37;32;1
38;33;1
39;34;1
40;35;1
41;36;1
42;37;1
43;38;1
44;39;1
45;40;1
46;41;1
47;42;1
48;43;1
49;44;1
50;45;1
51;46;1
52;47;1
53;48;1
54;49;1
55;50;1
56;51;1
57;52;1
58;53;1
59;54;1
60;55;1
61;56;1
62;57;1
63;58;1
64;59;1
65;60;1
66;61;1
67;62;1
68;63;1
69;64;1
70;65;1
71;66;1
72;67;1
73;68;1
74;69;1
75;70;1
76;71;1
77;72;1
78;73;1
79;74;1
80;75;1
81;76;1
82;77;1
83;78;1
84;79;1
85;80;1
86;81;1
87;82;1
88;83;1
89;84;1
90;85;1
91;86;1
92;87;1
93;88;1
94;89;1
95;90;1
96;91;1
97;92;1
98;93;1
99;94;1
100;95;1
101;96;1
102;97;1
103;98;1
104;99;1
105;100;1
106;101;1
107;102;1
108;103;1
109;104;1
110;105;1
111;106;1
112;107;1
113;108;1
114;109;1
115;110;1
116;111;1
117;112;1
118;113;1
119;114;1
120;6;2
121;7;2
122;8;2
123;9;2
124;10;2
125;11;2
126;12;2
127;13;2
128;238;2
129;238;2
130;16;2
131;17;2
132;18;2
133;19;2
134;20;2
135;21;2
136;22;2
137;23;2
138;24;2
139;238;2
140;26;2
141;27;2
142;28;2
143;29;2
144;30;2
145;31;2
146;32;2
147;33;2
148;34;2
149;238;2
150;36;2
151;37;2
152;38;2
153;39;2
154;40;2
155;41;2
156;42;2
157;43;2
158;44;2
159;45;2
160;46;2
161;47;2
162;48;2
163;49;2
164;50;2
165;51;2
166;52;2
167;53;2
168;238;2
169;55;2
170;56;2
171;57;2
172;58;2
173;238;2
174;60;2
175;61;2
176;62;2
177;63;2
178;64;2
179;65;2
180;66;2
181;67;2
182;68;2
183;69;2
184;70;2
185;71;2
186;72;2
187;73;2
188;74;2
189;75;2
190;76;2
191;77;2
192;78;2
193;79;2
194;80;2
195;81;2
196;82;2
197;83;2
198;84;2
199;85;2
200;86;2
201;87;2
202;88;2
203;89;2
204;90;2
205;91;2
206;92;2
207;93;2
208;94;2
209;238;2
210;238;2
211;97;2
212;238;2
213;99;2
214;100;2
215;101;2
216;102;2
217;103;2
218;104;2
219;105;2
220;238;2
221;107;2
222;238;2
223;238;2
224;110;2
225;111;2
226;112;2
227;113;2
228;114;2
229;115;3
230;116;3
231;117;3
232;118;3
233;119;3
234;120;3
235;121;3
236;122;3
237;123;3
238;124;3
239;125;3
240;126;3
241;127;3
242;128;3
243;129;3
244;130;3
245;131;3
246;132;3
247;133;3
248;134;3
249;135;3
250;136;3
251;137;3
252;138;3
253;139;3
254;115;4
255;116;4
256;117;4
257;118;4
258;119;4
259;120;4
260;121;4
261;122;4
262;123;4
263;124;4
264;125;4
265;126;4
266;127;4
267;128;4
268;129;4
269;130;4
270;131;4
271;132;4
272;133;4
273;134;4
274;135;4
275;136;4
276;137;4
277;138;4
278;139;4
279;115;5
280;116;5
281;117;5
282;118;5
283;119;5
284;120;5
285;121;5
286;122;5
287;123;5
288;124;5
289;125;5
290;126;5
291;127;5
292;128;5
293;129;5
294;130;5
295;131;5
296;132;5
297;133;5
298;134;5
299;135;5
300;136;5
301;137;5
302;138;5
303;139;5
304;115;6
305;116;6
306;117;6
307;118;6
308;119;6
309;120;6
310;121;6
311;122;6
312;123;6
313;124;6
314;125;6
315;126;6
316;127;6
317;128;6
318;129;6
319;130;6
320;131;6
321;132;6
322;133;6
323;134;6
324;135;6
325;136;6
326;137;6
327;138;6
328;139;6
329;140;1
330;141;1
331;142;1
332;143;1
333;144;1
334;145;1
335;146;1
336;147;1
337;148;1
338;149;1
339;150;1
340;151;1
341;152;1
342;153;1
343;154;1
344;155;1
345;156;1
346;157;1
347;158;1
348;159;1
349;160;1
350;161;1
351;162;1
352;163;1
353;164;1
354;165;1
355;166;1
356;167;1
357;168;1
358;169;1
359;170;1
360;171;1
361;172;1
362;173;1
363;174;1
364;175;1
365;176;1
366;177;1
367;178;1
368;179;1
369;180;1
370;181;1
371;182;1
372;183;1
373;184;1
374;185;1
375;186;1
376;187;1
377;188;1
378;189;1
379;190;1
380;191;1
381;192;1
382;193;1
383;194;1
384;195;1
385;196;1
386;197;1
387;198;1
388;199;1
389;200;1
390;201;1
391;202;1
392;203;1
393;204;1
394;205;1
395;206;1
396;207;1
397;208;1
398;209;1
399;210;1
400;211;1
401;212;1
402;213;1
403;214;1
404;215;1
405;216;1
406;217;1
407;218;1
408;219;1
409;220;1
410;221;1
411;222;1
412;223;1
413;224;1
414;225;1
415;226;1
416;227;1
417;228;1
418;229;1
419;230;1
420;231;1
421;232;1
422;233;1
423;234;1
424;235;1
425;236;1
426;237;1
427;140;2
428;141;2
429;142;2
430;143;2
431;144;2
432;145;2
433;146;2
434;147;2
435;148;2
436;149;2
437;150;2
438;151;2
439;152;2
440;153;2
441;154;2
442;155;2
443;156;2
444;157;2
445;158;2
446;159;2
447;160;2
448;161;2
449;162;2
450;163;2
451;164;2
452;165;2
453;166;2
454;167;2
455;168;2
456;169;2
457;170;2
458;171;2
459;172;2
460;173;2
461;174;2
462;175;2
463;176;2
464;177;2
465;178;2
466;179;2
467;180;2
468;181;2
469;182;2
470;183;2
471;184;2
472;185;2
473;186;2
474;187;2
475;188;2
476;189;2
477;190;2
478;191;2
479;192;2
480;193;2
481;194;2
482;195;2
483;196;2
484;197;2
485;198;2
486;199;2
487;200;2
488;201;2
489;202;2
490;203;2
491;204;2
492;205;2
493;206;2
494;207;2
495;208;2
496;209;2
497;210;2
498;211;2
499;212;2
500;213;2
501;214;2
502;215;2
503;216;2
504;217;2
505;218;2
506;219;2
507;220;2
508;221;2
509;222;2
510;223;2
511;224;2
512;225;2
513;226;2
514;227;2
515;228;2
516;229;2
517;230;2
518;231;2
519;232;2
520;233;2
521;234;2
522;235;2
523;236;2
524;237;2
525;238;1
526;238;2
527;239;1
528;240;1
529;241;1
530;242;1
531;243;1
532;244;1
533;245;1
534;246;1
535;247;1
536;248;1
537;249;1
538;250;1
539;251;1
540;252;1
541;253;1
542;254;1
543;255;1
544;256;1
545;257;1
546;258;1
547;259;1
548;260;1
549;261;1
550;262;1
551;263;1
552;264;1
553;265;1
554;266;1
555;267;1
556;268;1
557;269;1
558;270;1
559;271;1
560;272;1
561;273;1
562;274;1
563;275;1
564;276;1
565;277;1
566;278;1
567;279;1
568;280;1
569;281;1
570;282;1
571;283;1
572;284;1
573;285;1
574;286;1
575;287;1
576;288;1
577;289;1
578;290;1
579;291;1
580;292;1
581;293;1
582;294;1
583;295;1
584;296;1
585;297;1
586;298;1
587;299;1
588;300;1
589;301;1
590;302;1
591;303;1
592;304;1
593;305;1
594;306;1
595;307;1
596;308;1
597;309;1
598;310;1
599;311;1
600;312;1
601;313;1
602;314;1
603;315;1
604;316;1
605;317;1
606;318;1
607;319;1
608;320;1
609;321;1
610;322;1
611;323;1
612;324;1
613;325;1
614;326;1
615;327;1
616;328;1
617;329;1
618;330;1
619;331;1
620;332;1
621;333;1
622;334;1
623;335;1
624;336;1
625;337;1
626;338;1
627;339;1
628;340;1
629;341;1
630;342;1
631;343;1
632;344;1
633;345;1
634;346;1
635;347;1
636;348;1
637;349;1
638;350;1
639;351;1
640;352;1
641;353;1
642;354;1
643;355;1
644;356;1
645;357;1
646;358;1
647;359;1
648;360;1
649;361;1
650;362;1
651;363;1
652;364;1
653;365;1
654;366;1
655;367;1
656;368;1
657;369;1
658;370;1
659;371;1
660;372;1
661;373;1
662;374;1
663;375;1
664;376;1
665;377;1
666;378;1
667;379;1
668;380;1
669;381;1
670;382;1
671;383;1
672;384;1
673;385;1
674;386;1
675;387;1
676;388;1
677;389;1
678;390;1
679;391;1
680;392;1
681;393;1
682;394;1
683;395;1
684;396;1
685;397;1
686;398;1
687;399;1
688;400;1
689;401;1
690;402;1
691;403;1
692;404;1
693;405;1
694;406;1
695;407;1
696;408;1
697;409;1
698;410;1
699;411;1
700;412;1
701;413;1
702;414;1
703;415;1
704;416;1
705;417;1
706;418;1
707;419;1
708;420;1
709;421;1
710;422;1
711;423;1
712;424;1
713;425;1
714;426;1
715;427;1
716;428;1
717;429;1
718;430;1
719;431;1
720;432;1
721;433;1
722;434;1
723;435;1
724;436;1
725;437;1
726;438;1
727;439;1
728;440;1
729;441;1
730;442;1
731;443;1
732;444;1
733;445;1
734;446;1
735;447;1
736;448;1
737;449;1
738;450;1
739;451;1
740;452;1
741;453;1
742;454;1
743;455;1
744;456;1
745;457;1
746;458;1
747;459;1
748;460;1
749;461;1
750;462;1
751;463;1
752;464;1
753;465;1
754;466;1
755;467;1
756;468;1
757;469;1
758;470;1
759;471;1
760;472;1
761;473;1
762;474;1
763;475;1
764;476;1
765;477;1
766;478;1
767;479;1
768;480;1
769;481;1
770;482;1
771;483;1
772;484;1
773;485;1
774;486;1
775;487;1
776;488;1
777;489;1
778;490;1
779;491;1
780;492;1
781;493;1
782;494;1
783;495;1
784;496;1
785;497;1
786;498;1
787;499;1
788;500;1
789;501;1
790;502;1
791;503;1
792;504;1
793;505;1
794;506;1
795;507;1
796;508;1
797;509;1
798;510;1
799;511;1
800;512;1
801;513;1
802;514;1
803;515;1
804;516;1
805;517;1
806;518;1
807;519;1
808;520;1
809;521;1
810;522;1
811;523;1
812;524;1
813;525;1
814;526;1
815;527;1
816;528;1
817;529;1
818;530;1
819;531;1
820;532;1
821;533;1
822;534;1
823;535;1
824;536;1
825;537;1
826;538;1
827;539;1
828;540;1
829;541;1
830;542;1
831;543;1
832;544;1
833;545;1
834;546;1
835;547;1
836;548;1
837;549;1
838;550;1
839;551;1
840;552;1
841;553;1
842;554;1
843;555;1
844;556;1
845;557;1
846;558;1
847;559;1
848;560;1
849;561;1
850;562;1
851;563;1
852;564;1
853;565;1
854;566;1
855;567;1
856;568;1
857;569;1
858;570;1
859;571;1
860;572;1
861;573;1
862;574;1
863;575;1
864;576;1
865;577;1
866;578;1
867;579;1
868;580;1
869;581;1
870;582;1
871;583;1
872;584;1
873;585;1
874;586;1
875;587;1
876;588;1
877;589;1
878;590;1
879;591;1
880;592;1
881;593;1
882;594;1
883;595;1
884;596;1
885;597;1
886;598;1
887;599;1
888;600;1
889;601;1
890;602;1
891;603;1
892;604;1
893;605;1
894;606;1
895;607;1
896;608;1
897;609;1
898;610;1
899;611;1
900;612;1
901;613;1
902;614;1
903;615;1
904;616;1
905;617;1
906;618;1
907;619;1
908;620;1
909;621;1
910;622;1
911;623;1
912;624;1
913;625;1
914;626;1
915;627;1
916;628;1
917;629;1
918;630;1
919;631;1
920;632;1
921;633;1
922;634;1
923;635;1
924;636;1
925;637;1
926;638;1
927;639;1
928;640;1
929;641;1
930;642;1
931;643;1
932;644;1
933;645;1
934;646;1
935;647;1
936;648;1
937;649;1
938;650;1
939;651;1
940;652;1
941;653;1
942;654;1
943;655;1
944;656;1
945;657;1
946;658;1
947;659;1
948;660;1
949;661;1
950;662;1
951;663;1
952;664;1
953;665;1
954;666;1
955;667;1
956;668;1
957;669;1
958;670;1
959;671;1
960;672;1
961;673;1
962;674;1
963;675;1
964;676;1
965;677;1
966;678;1
967;679;1
968;680;1
969;681;1
970;682;1
971;683;1
972;684;1
973;685;1
974;686;1
975;687;1
976;688;1
977;689;1
978;690;1
979;691;1
980;692;1
981;693;1
982;694;1
983;695;1
984;696;1
985;697;1
986;698;1
987;699;1
988;700;1
989;701;1
990;702;1
991;703;1
992;704;1
993;705;1
994;706;1
995;707;1
996;708;1
997;709;1
998;710;1
999;711;1
1000;712;1
1001;713;1
1002;714;1
1003;715;1
1004;716;1
1005;717;1
1006;718;1
1007;719;1
1008;720;1
1009;721;1
1010;722;1
1011;723;1
1012;724;1
1013;725;1
1014;726;1
1015;727;1
1016;728;1
1017;729;1
1018;730;1
1019;731;1
1020;732;1
1021;733;1
1022;734;1
1023;735;1
1024;736;1
1025;737;1
1026;738;1
1027;739;1
1028;740;1
1029;741;1
1030;742;1
1031;743;1
1032;744;1
1033;745;1
1034;746;1
1035;747;1
1036;748;1
1037;749;1
1038;750;1
1039;751;1
1040;752;1
1041;753;1
1042;754;1
1043;755;1
1044;756;1
1045;757;1
1046;758;1
1047;759;1
1048;760;1
1049;761;1
1050;762;1
1051;763;1
1052;764;1
1053;765;1
1054;766;1
1055;767;1
1056;768;1
1057;769;1
1058;770;1
1059;771;1
1060;772;1
1061;773;1
1062;774;1
1063;775;1
1064;776;1
1065;777;1
1066;778;1
1067;779;1
1068;780;1
1069;781;1
1070;782;1
1071;783;1
1072;784;1
1073;785;1
1074;786;1
1075;787;1
1076;788;1
1077;789;1
1078;790;1
1079;791;1
1080;792;1
1081;793;1
1082;794;1
1083;795;1
1084;796;1
1085;797;1
1086;798;1
1087;799;1
1088;800;1
1089;801;1
1090;802;1
1091;803;1
1092;804;1
1093;805;1
1094;806;1
1095;807;1
1096;808;1
1097;809;1
1098;810;1
1099;811;1
1100;812;1
1101;813;1
1102;814;1
1103;815;1
1104;816;1
1105;817;1
1106;818;1
1107;819;1
1108;820;1
1109;821;1
1110;822;1
1111;823;1
1112;824;1
1113;825;1
1114;826;1
1115;827;1
1116;828;1
1117;829;1
1118;830;1
1119;831;1
1120;832;1
1121;833;1
1122;834;1
1123;835;1
1124;836;1
1125;837;1
1126;838;1
1127;839;1
1128;840;1
1129;841;1
1130;842;1
1131;843;1
1132;844;1
1133;845;1
1134;846;1
1135;847;1
1136;848;1
1137;849;1
1138;850;1
1139;851;1
1140;852;1
1141;853;1
1142;854;1
1143;855;1
1144;856;1
1145;857;1
1146;858;1
1147;859;1
1148;860;1
1149;861;1
1150;862;1
1151;863;1
1152;864;1
1153;865;1
1154;866;1
1155;867;1
1156;868;1
1157;869;1
1158;870;1
1159;871;1
1160;872;1
1161;873;1
1162;874;1
1163;875;1
1164;876;1
1165;877;1
1166;878;1
1167;879;1
1168;880;1
1169;881;1
1170;882;1
1171;883;1
1172;884;1
1173;885;1
1174;886;1
1175;887;1
1176;888;1
1177;889;1
1178;890;1
1179;891;1
1180;892;1
1181;893;1
1182;894;1
1183;895;1
1184;896;1
1185;897;1
1186;898;1
1187;899;1
1188;900;1
1189;901;1
1190;902;1
1191;902;2
1192;67;6
1193;238;1
1194;904;1
1195;905;1
1196;906;1
1197;907;1
1198;908;2
1199;909;1
1200;910;1
1201;911;1
1202;912;1