{
  "name": "dashboard-js",
  "script": "./server/app.js",
  "args": "",
  "log_date_format" : "YYYY-MM-DD_HH:mm:ss.SSS",
  "env": {
    "NODE_ENV": "production",
    "DOMAIN": "",
    "SESSION_SECRET": "",
    "ACTIVITI_PROT": "",
    "ACTIVITI_HOST": "",
    "ACTIVITI_PORT": "8081",
    "ACTIVITI_REST": "",
    "ACTIVITI_USER": "",
    "ACTIVITI_PASSWORD": "",
    "BANK_ID_HOST": "",
    "BANK_ID_APP_ID": "",
    "BANK_ID_PATH": "",
    "BANK_ID_TOKEN_PATH": "",
    "BANK_ID_SECRET": "",
    "BANK_ID_USER_PATH": "",
    "SSL_PORT": "9001",
    "PORT": "9001",
    "PRIVATE_KEY": "",
    "CERTIFICATE": "",
    "NODE_TLS_REJECT_UNAUTHORIZED":""
  }
}
